Capacitación en R y herramientas de productividad - nivel intermedio
…
--

**Ejemplo:** Si queremos detectar y tabular solamente a las personas que en su nombre contienen el patrón "eta", podríamos hacerlo así.

--

```r
guaguas %>% 
  filter(str_detect(nombre, pattern = "eta")) %>%
  count(nombre)
```

```
## # A tibble: 215 × 2
##    nombre             n
##    <chr>          <int>
##  1 Adrioleta          1
##  2 Agneta             6
##  3 Agrieta            1
##  4 Ahetana            1
##  5 Alieta             3
##  6 Amalia-Violeta     1
##  7 Anacleta          13
##  8 Anacoreta          2
##  9 Anceta             1
## 10 Aneta              1
## # … with 205 more rows
```
…
# Ejercicio (no tan) express: solución

--

(1) Tabular los nombres solo de las mujeres que tienen un nombre terminado en "o".

```r
guaguas %>% 
  filter(sexo == "F" & anio == 1985 & str_detect(nombre, "o$")) %>%
  count(nombre)
```

```
## # A tibble: 32 × 2
##    nombre       n
##    <chr>    <int>
##  1 Aiko         1
##  2 Amparito     1
##  3 Amparo       1
##  4 Charito      1
##  5 Cielo        1
##  6 Consuelo     1
##  7 Conzuelo     1
##  8 Fujiko       1
##  9 Hatsuko      1
## 10 Io           1
## # … with 22 more rows
```
…
# Ejercicio (no tan) express: solución

(2) Tabular los nombres solo de los hombres que tienen un nombre terminado en "a".

```r
guaguas %>% 
  filter(sexo == "M" & anio == 1985 & str_detect(nombre, "a$")) %>%
  count(nombre)
```

```
## # A tibble: 35 × 2
##    nombre          n
##    <chr>       <int>
##  1 Aliosha         1
##  2 Andrea          1
##  3 Bautista        1
##  4 Bechara         1
##  5 Borja           1
##  6 Edrra           1
##  7 Elena           1
##  8 Evanjelista     1
##  9 Gorka           1
## 10 Haumaka         1
## # … with 25 more rows
```
…
# Ejercicio (no tan) express: solución

(3) Nombres de personas que su nombre termine con "e", con o sin acento.

```r
guaguas %>% 
  filter(anio == 1985 & str_detect(nombre, "(e|é)$")) %>% 
  count(nombre)
```

```
## # A tibble: 891 × 2
##    nombre        n
##    <chr>     <int>
##  1 Addele        1
##  2 Aidé          1
##  3 Aike          1
##  4 Ailene        1
##  5 Aine          1
##  6 Ainohe        1
##  7 Alcide        1
##  8 Ale           1
##  9 Aleide        1
## 10 Alexandre     1
## # … with 881 more rows
```
…
