Capacitación en R y herramientas de productividad
…
# Ejercicio (no tan) express: solución

(3) Nombres de personas que su nombre termine con "e", con o sin acento.

```r
guaguas %>% 
  filter(str_detect(nombre, "(e|é)$")) %>% 
  count(nombre)
```

```
## # A tibble: 238 x 2
##    nombre        n
##    <chr>     <int>
##  1 Adele        15
##  2 Adeline     106
##  3 Aidée        16
##  4 Ailine       55
##  5 Alexandre    54
##  6 Alice      2036
##  7 Aline      1522
##  8 Alinne       30
##  9 Amable      165
## 10 Amelie      717
## # ... with 228 more rows
```
…
# Ejercicio (no tan)  express: solución

(4) Crea una nueva variable que contenga la primera letra del nombre.

```r
guaguas <- guaguas %>% 
  mutate(inicial = str_sub(nombre, 1, 1))
guaguas %>% count(inicial)
```

```
## # A tibble: 28 x 2
##    inicial       n
##    <chr>     <int>
##  1 A       1710655
##  2 Á         51821
##  3 B        549676
##  4 C       1768872
##  5 D        687776
##  6 E       1054904
##  7 F        900224
##  8 G        682656
##  9 H        407218
## 10 I        512969
## # ... with 18 more rows
```
…
